[
  {
    "Id": "mylife",
    "title": "My Life",
    "subtitle": "Things I experience",
    "author": "by Martin",
    "content": "",
    "img": "sm.jpg",
    "url":"myposts"
  },
  {
    "Id": "travel",
    "title": "Travel",
    "subtitle": "Travels with my wife",
    "author": "by Martin",
    "content": "",
    "img": "disney.jpg",
    "url":"mytravel"
  },
  {
    "Id": "food",
    "title": "Street Food",
    "subtitle": "Cuisine from various cities",
    "author": "by Martin Hodges",
    "content": "",
    "img": "oysters.jpg",
    "url":"myfood"
  },
   {
    "Id": "tech",
    "title": "Tech",
    "subtitle": "Gadgets and all things tech",
    "author": "by Martin",
    "content": "",
    "img": "flatiron.jpg",
    "url":"mytech"
  }
]